<?xml version="1.0" standalone="no"?>
<!DOCTYPE svg PUBLIC "-//W3C//DTD SVG 1.1//EN" "http://www.w3.org/Graphics/SVG/1.1/DTD/svg11.dtd" >
<svg xmlns="http://www.w3.org/2000/svg">
<metadata>Generated by IcoMoon</metadata>
<defs>
<font id="icomoon" horiz-adv-x="1024">
<font-face units-per-em="1024" ascent="960" descent="-64" />
<missing-glyph horiz-adv-x="1024" />
<glyph unicode="&#x20;" horiz-adv-x="512" d="" />
<glyph unicode="&#xe901;" horiz-adv-x="5081" d="M0 313.263h1064.003v269.474h-1064.003z" />
<glyph unicode="&#xe902;" horiz-adv-x="5081" d="M0 690.526h1064.003v269.474h-1064.003z" />
<glyph unicode="&#xe903;" horiz-adv-x="5081" d="M0-64h1064.003v269.474h-1064.003z" />
<glyph unicode="&#xe904;" horiz-adv-x="5081" d="M1591.721 376.468c0 50.387-9.864 61.074-56.148 61.074h-75.119v-122.91h75.877c45.526 0 55.39 11.457 55.39 61.836zM1536.331 635.255h-75.877v-103.815h77.392c35.662 0 47.049 8.393 47.049 51.911 0 41.979-11.387 51.904-48.564 51.904zM1755.605 342.882c0-108.404-58.421-137.409-189.681-137.409-124.434 0-188.166 0.755-262.52 6.106v526.736c67.528 5.344 125.942 6.106 237.48 6.106 145.678 0 201.068-29.005 201.068-137.409 0-73.286-34.904-109.921-114.569-116.034v-12.212c94.841-6.868 128.222-54.198 128.222-135.884z" />
<glyph unicode="&#xe905;" horiz-adv-x="5081" d="M1808.805 688.768c0 36.359 20.125 55.653 58.049 55.653h69.658c34.825 0 44.115-14.841 65.013-46.747l111.453-168.441c19.345-31.165 33.279-68.264 45.66-108.335l13.934 2.964c-5.418 35.618-10.063 75.689-10.063 111.299l-0.773 209.26h152.469v-456.354c0-36.352-20.118-55.646-58.042-55.646h-69.665c-35.598 0-46.433 18.546-65.005 46.747l-114.553 177.348c-20.898 34.129-30.188 69.005-39.47 107.587l-14.707-2.964c6.191-35.618 9.29-77.911 9.29-112.047v-216.67h-153.249v456.347z" />
<glyph unicode="&#xe906;" horiz-adv-x="5081" d="M2394.007 688.768c0 36.359 20.125 55.653 58.048 55.653h69.656c34.825 0 44.114-14.841 65.012-46.747l111.452-168.441c19.344-31.165 33.279-68.264 45.66-108.335l13.927 2.964c-5.41 35.618-10.055 75.689-10.055 111.299l-0.773 209.26h152.474v-456.354c0-36.352-20.125-55.646-58.056-55.646h-69.656c-35.597 0-46.433 18.546-65.012 46.747l-114.543 177.348c-20.898 34.129-30.18 69.005-39.469 107.587l-14.707-2.964c6.191-35.618 9.282-77.911 9.282-112.047v-216.67h-153.24v456.347z" />
<glyph unicode="&#xe907;" horiz-adv-x="5081" d="M3304.135 275.456c-6.658-25.97-27.384-43.035-54.753-43.035h-141.344c-27.369 0-48.095 17.064-54.753 43.035l-127.276 468.965h165.019l68.814-333.17c3.702-18.553 6.665-40.071 9.62-58.617h18.495c2.224 18.546 5.919 40.064 9.628 58.617l68.807 333.17h165.019l-127.276-468.965z" />
<glyph unicode="&#xe908;" horiz-adv-x="5081" d="M3750.157 436.48l-29.931 129.119c-3.736 20.776-8.974 45.258-10.475 66.034h-24.694c-2.234-20.776-5.985-45.258-10.475-66.034l-29.924-129.119h105.499zM3774.858 331.116h-154.894l-23.199-98.695h-165.355l133.929 470.447c7.486 25.23 28.437 41.553 54.625 41.553h154.894c26.181 0 47.886-16.323 54.618-41.553l133.936-470.447h-165.362l-23.192 98.695z" />
<glyph unicode="&#xe909;" horiz-adv-x="5081" d="M4306.207 578.385c0 46.079-13.132 57.787-63.319 57.787h-61.784v-115.567h61.784c50.186 0 63.319 11.701 63.319 57.78zM4495.414 232.421h-174.532l-36.29 149.939c-6.177 24.869-17.767 33.648-47.88 33.648h-55.607v-183.587h-164.492v504.689c72.595 6.581 122.018 7.311 230.132 7.311 159.094 0 227.818-32.911 227.818-142.628 0-60.709-30.892-114.106-128.966-124.346v-11.701c36.298-7.318 89.583-21.21 107.343-81.188l42.474-152.137z" />
<glyph unicode="&#xe90a;" horiz-adv-x="5081" d="M4867.365 436.48l-29.932 129.119c-3.743 20.776-8.981 45.258-10.475 66.034h-24.694c-2.242-20.776-5.985-45.258-10.475-66.034l-29.932-129.119h105.508zM4892.059 331.116h-154.889l-23.2-98.695h-165.357l133.931 470.447c7.479 25.23 28.43 41.553 54.626 41.553h154.889c26.188 0 47.886-16.323 54.618-41.553l133.938-470.447h-165.364l-23.192 98.695z" />
</font></defs></svg>